Timestamp,Milliseconds,X,Y,Z
2021-01-31 18:45:10,2,-0.12542397,-4.4810772E-4,0.43629646
2021-01-31 18:45:10,21,0.013001261,0.01834941,0.38114643
2021-01-31 18:45:10,40,0.023123633,0.05015707,-0.12672806
2021-01-31 18:45:10,60,-0.15193452,-0.083844185,-0.14844131
2021-01-31 18:45:10,80,-0.20230617,0.043667912,0.028978348
2021-01-31 18:45:10,100,-0.08234249,-0.03516507,-0.15243816
2021-01-31 18:45:10,120,-0.064169526,-0.034437537,-0.11929512
2021-01-31 18:45:10,140,0.027283505,-0.08901775,0.14826298
2021-01-31 18:45:10,160,-0.041691225,-0.111953735,0.11440849
2021-01-31 18:45:10,181,-0.21884349,0.07389641,0.1990223
2021-01-31 18:45:10,200,-0.074855104,0.04199338,0.03159809
2021-01-31 18:45:10,220,0.03626396,0.059912086,-0.18367386
2021-01-31 18:45:10,240,0.22661167,-0.087342024,-0.09499359
2021-01-31 18:45:10,260,0.16580908,0.03965211,0.1505785
2021-01-31 18:45:10,280,-0.11973841,0.13225913,0.2833042
2021-01-31 18:45:10,300,0.0591455,-0.019593716,0.14679241
2021-01-31 18:45:10,320,0.16442662,-0.11114973,0.011561394
2021-01-31 18:45:10,341,0.14869538,-0.058759212,-0.27572346
2021-01-31 18:45:10,360,0.15878648,-0.036458135,-0.3404436
2021-01-31 18:45:10,380,0.23014507,-0.006140709,-0.054761887
2021-01-31 18:45:10,400,0.29380414,-0.07795572,0.2261095
2021-01-31 18:45:10,420,0.1607607,-0.043827295,-0.023104668
2021-01-31 18:45:10,440,0.1431183,0.18130398,-0.16501236
2021-01-31 18:45:10,460,0.21815261,0.48710394,0.049570084
2021-01-31 18:45:10,480,0.6089348,0.3412888,0.015618324
2021-01-31 18:45:10,500,0.9475499,0.100764275,-0.3344946
2021-01-31 18:45:10,520,0.94407845,-0.11948812,-0.5986881
2021-01-31 18:45:10,541,0.6671855,-0.051418066,-0.35121918
2021-01-31 18:45:10,560,0.661397,-0.07792318,0.19621563
2021-01-31 18:45:10,580,0.6286114,-0.12356341,0.6823807
2021-01-31 18:45:10,600,0.613508,-0.18531144,0.3485508
2021-01-31 18:45:10,621,0.5608208,-0.23933679,0.11907959
2021-01-31 18:45:10,640,0.12216748,-0.28015053,-0.13862419
2021-01-31 18:45:10,660,-0.33913308,-0.08211011,-0.74694157
2021-01-31 18:45:11,681,-0.25300056,-0.009339333,-0.25855255
2021-01-31 18:45:11,700,-0.20197153,-0.15948522,-0.03543091
2021-01-31 18:45:11,721,-0.14053619,-0.28133285,-0.16967487
2021-01-31 18:45:11,740,0.025493354,-0.2698202,-0.48000336
2021-01-31 18:45:11,760,0.021716386,-0.36938757,-0.26405048
2021-01-31 18:45:11,780,0.31366438,-0.47420758,0.6868315
2021-01-31 18:45:11,801,0.814858,-0.49820265,0.7428732
2021-01-31 18:45:11,820,0.56763005,-0.43360198,0.20149612
2021-01-31 18:45:11,840,0.3102023,-0.26164722,0.23713589
2021-01-31 18:45:11,860,0.084926754,-0.049923122,0.7725134
2021-01-31 18:45:11,880,-0.62467986,0.2534243,0.5185957
2021-01-31 18:45:11,900,-0.4931574,0.090935886,-0.21286297
2021-01-31 18:45:11,920,-0.022613704,-0.26084983,-0.437912
2021-01-31 18:45:11,941,-0.07300174,-0.15345722,0.22508812
2021-01-31 18:45:11,960,-0.053968832,-0.05704844,0.6380358
2021-01-31 18:45:11,980,-0.22352445,0.16975331,0.20472622
2021-01-31 18:45:11,1000,-0.41704482,0.11212647,-0.18883896
2021-01-31 18:45:11,1020,-0.64670086,0.049474835,0.26934242
2021-01-31 18:45:11,1040,-0.5154793,-0.002573073,0.50843716
2021-01-31 18:45:11,1060,-0.41531962,-0.05872488,0.5392904
2021-01-31 18:45:11,1081,-0.32793653,-1.1521578E-4,0.3576975
2021-01-31 18:45:11,1100,-0.3222753,-0.07070458,0.39553928
2021-01-31 18:45:11,1120,-0.6658853,-0.018949866,0.3640442
2021-01-31 18:45:11,1140,-0.90667635,-0.013144851,-0.17886639
2021-01-31 18:45:11,1160,-0.9735883,0.035114706,-0.31348705
2021-01-31 18:45:11,1181,-0.7887051,-0.037002265,-0.25477695
2021-01-31 18:45:11,1200,-0.93367124,-0.11854875,-0.25590038
2021-01-31 18:45:11,1220,-0.75448257,-0.29028666,-0.3972206
2021-01-31 18:45:11,1240,-0.24850425,-0.36579078,-0.2430811
2021-01-31 18:45:11,1261,-0.06720577,-0.25666898,0.23200321
2021-01-31 18:45:11,1280,0.007388681,-0.051656008,0.2603321
2021-01-31 18:45:11,1300,0.06489909,0.13023776,-0.025704384
2021-01-31 18:45:11,1321,-0.02460602,0.14657104,-0.55338764
2021-01-31 18:45:11,1340,0.19931301,-0.059415102,-0.7241154
2021-01-31 18:45:11,1360,0.036651164,-0.04878086,-0.33088017
2021-01-31 18:45:11,1380,-0.20696968,-0.06200421,0.13521957
2021-01-31 18:45:11,1401,-0.1630418,-0.091754615,0.5064163
2021-01-31 18:45:11,1420,0.19112189,0.008283615,-0.026329994
2021-01-31 18:45:11,1440,0.43805817,0.09360868,-0.30782127
2021-01-31 18:45:11,1460,0.40385464,0.16915631,-0.18692303
2021-01-31 18:45:11,1481,0.4862483,0.106196105,-0.29614544
2021-01-31 18:45:11,1500,0.41631997,0.20704514,-0.6595831
2021-01-31 18:45:11,1520,-0.023365512,0.2006743,-0.6036062
2021-01-31 18:45:11,1540,0.120621644,0.13733613,-0.40385342
2021-01-31 18:45:11,1560,0.3773258,-0.08810407,0.109781265
2021-01-31 18:45:11,1581,0.18299735,-0.1781882,0.25881577
2021-01-31 18:45:11,1600,-0.07579383,-0.24844646,-0.040688515
2021-01-31 18:45:11,1620,-0.24340968,-0.23685282,-0.054437637
2021-01-31 18:45:11,1640,-0.27794227,-0.25533307,0.034175873
2021-01-31 18:45:11,1661,-0.29197884,-0.32971907,-0.06964207
2021-01-31 18:45:12,1680,-0.34831202,-0.26629257,-0.034502983
2021-01-31 18:45:12,1700,-0.47790912,-0.04916787,0.069826126
2021-01-31 18:45:12,1720,-0.8140645,0.16214406,0.31261635
2021-01-31 18:45:12,1740,-0.51715934,0.12082088,0.35561275
2021-01-31 18:45:12,1761,-0.008396089,0.08107966,0.070978165
2021-01-31 18:45:12,1780,0.20454405,0.0970301,-0.27334976
2021-01-31 18:45:12,1800,0.41279578,0.031630814,-0.19256306
2021-01-31 18:45:12,1820,0.15985179,0.11837304,0.27684975
2021-01-31 18:45:12,1841,0.18843806,0.17393786,0.5516634
2021-01-31 18:45:12,1860,0.22455707,0.1800738,0.35221577
2021-01-31 18:45:12,1880,0.19169042,-0.015174568,-0.30877972
2021-01-31 18:45:12,1900,0.031279884,-0.05843401,-0.3352728
2021-01-31 18:45:12,1921,0.04954169,-0.03070116,-0.16209984
2021-01-31 18:45:12,1940,0.14695497,0.0054431558,-0.034981728
2021-01-31 18:45:12,1960,0.3475808,-0.15703797,-0.16125584
2021-01-31 18:45:12,1980,0.35694394,-0.28589755,-0.39634037
2021-01-31 18:45:12,2000,0.074368566,-0.2928728,-0.15053368
2021-01-31 18:45:12,2021,-0.3684279,-0.20171434,0.1441412
2021-01-31 18:45:12,2040,-0.64237934,-0.14182961,0.37050152
2021-01-31 18:45:12,2060,-0.5369885,0.02445674,0.31403732
2021-01-31 18:45:12,2080,-0.2884686,-0.003713727,0.21588516
2021-01-31 18:45:12,2101,-0.1911801,-0.07326388,-0.1089592
2021-01-31 18:45:12,2120,0.07512865,-0.2682949,0.015267372
2021-01-31 18:45:12,2140,0.18771033,-0.2312203,0.052700043
2021-01-31 18:45:12,2160,-0.24612,-0.037829757,0.058052063
2021-01-31 18:45:12,2181,-0.15093619,0.0628286,0.18002415
2021-01-31 18:45:12,2200,0.092783704,0.08343434,0.31681347
2021-01-31 18:45:12,2220,0.17698886,0.05886233,0.41055298
2021-01-31 18:45:12,2240,0.031130828,0.11518824,0.4118681
2021-01-31 18:45:12,2260,0.065482736,0.18212342,0.14781761
2021-01-31 18:45:12,2281,-0.21776539,0.25761378,0.08109093
2021-01-31 18:45:12,2300,-0.36960965,0.28366095,0.2858162
2021-01-31 18:45:12,2320,-0.19135742,0.1837802,0.00116539
2021-01-31 18:45:12,2340,-0.033228695,-0.05959952,-0.38006687
2021-01-31 18:45:12,2361,0.26819915,-0.08347523,-0.18394184
2021-01-31 18:45:12,2380,0.24701357,-0.075695574,0.2259674
2021-01-31 18:45:12,2400,0.26609465,-0.13137609,0.25838375
2021-01-31 18:45:12,2420,0.31592262,-0.17408812,0.15166092
2021-01-31 18:45:12,2440,-0.01297684,-0.027455926,0.16997433
2021-01-31 18:45:12,2460,-0.15583372,0.09462947,0.012925148
2021-01-31 18:45:12,2480,-0.08477691,0.115463614,-0.17503166
2021-01-31 18:45:12,2501,0.113914154,0.044667065,-0.17966843
2021-01-31 18:45:12,2520,0.22663291,-0.056013286,-0.119413376
2021-01-31 18:45:12,2540,0.065087914,-0.18880278,0.09633827
2021-01-31 18:45:12,2560,-0.036913052,-0.14582479,-0.009732246
2021-01-31 18:45:12,2581,0.04885476,-0.07646322,-0.12327099
2021-01-31 18:45:12,2600,0.077815205,0.10858029,-0.12978268
2021-01-31 18:45:12,2620,0.024997711,-0.034760058,-0.35252762
2021-01-31 18:45:12,2640,0.13322613,-0.08711952,-0.7996893
2021-01-31 18:45:12,2660,-0.0819546,0.27282113,-0.87360764
2021-01-31 18:45:13,2680,-0.53802997,0.56461567,-0.2016468
2021-01-31 18:45:13,2700,-0.3483219,0.44711113,0.053165436
2021-01-31 18:45:13,2720,-0.21222904,0.17714572,-0.36316013
2021-01-31 18:45:13,2740,-0.13778359,-0.0047172904,-0.6708374
2021-01-31 18:45:13,2760,0.1916204,-0.17572081,-0.40106487
2021-01-31 18:45:13,2781,0.37949428,-0.17415154,0.6133766
2021-01-31 18:45:13,2800,0.21912837,-0.14440447,1.2256403
2021-01-31 18:45:13,2820,0.2607001,-0.13847536,0.8492508
2021-01-31 18:45:13,2840,0.13098651,-0.22803742,-0.03450203
2021-01-31 18:45:13,2860,-0.20428848,-0.265728,-0.14355087
2021-01-31 18:45:13,2881,-0.4538122,-0.27574125,0.42756462
2021-01-31 18:45:13,2900,-0.13341084,-0.22272825,0.5528898
2021-01-31 18:45:13,2920,-0.086192355,-0.119017065,0.23253441
2021-01-31 18:45:13,2940,-0.18348032,-0.13391101,-0.0905447
2021-01-31 18:45:13,2960,-0.3628688,-0.109760106,-0.094724655
2021-01-31 18:45:13,2980,-0.3163004,-0.070669174,-0.023648262
2021-01-31 18:45:13,3000,-0.41709858,0.07625681,-0.3338852
2021-01-31 18:45:13,3020,-0.062818125,0.23575282,-0.31773567
2021-01-31 18:45:13,3040,0.32649073,0.11691648,-0.27686405
2021-01-31 18:45:13,3061,0.059581086,0.040133476,-0.30791855
2021-01-31 18:45:13,3080,-0.05280097,0.008496404,-0.18762016
2021-01-31 18:45:13,3100,0.09632445,0.2501102,0.24823284
2021-01-31 18:45:13,3120,-0.13633041,0.13667881,0.23136902
2021-01-31 18:45:13,3140,-0.32192922,0.060122192,-0.13233566
2021-01-31 18:45:13,3161,-0.37351623,0.02285111,-0.17193604
2021-01-31 18:45:13,3180,-0.31018585,0.06296694,-0.028392792
2021-01-31 18:45:13,3200,-0.16885039,0.19732338,-0.028425217
2021-01-31 18:45:13,3220,0.032118827,0.09211606,0.20665455
2021-01-31 18:45:13,3241,-0.015841559,-0.04417181,0.25289154
2021-01-31 18:45:13,3260,-0.024870977,-0.14668304,-0.107302666
2021-01-31 18:45:13,3280,0.086106524,-0.0034854412,-0.11918163
2021-01-31 18:45:13,3301,0.15686661,0.04304248,0.2934456
2021-01-31 18:45:13,3320,0.20794153,0.015350282,0.2459135
2021-01-31 18:45:13,3340,0.0800948,-0.2288611,-0.10023403
2021-01-31 18:45:13,3360,-0.119217604,-0.29715514,-0.18606281
2021-01-31 18:45:13,3380,0.19312158,-0.11999661,0.0064077377
2021-01-31 18:45:13,3400,0.26442304,0.09376347,0.28578663
2021-01-31 18:45:13,3420,0.31191954,0.07539809,0.25448132
2021-01-31 18:45:13,3440,0.37152416,-0.14055353,-0.13287449
2021-01-31 18:45:13,3460,0.32501605,-0.214223,0.11764145
2021-01-31 18:45:13,3480,0.22353895,-0.10323006,0.5307493
2021-01-31 18:45:13,3501,0.07143487,-0.10643768,0.2249384
2021-01-31 18:45:13,3520,0.040712625,-0.18663985,-0.28783226
2021-01-31 18:45:13,3540,0.24726535,-0.2004748,-0.380867
2021-01-31 18:45:13,3560,0.20105377,-0.040091693,-0.2217493
2021-01-31 18:45:13,3580,0.26412302,-0.051133037,-0.21784973
2021-01-31 18:45:13,3601,0.19249144,-0.059559822,-0.48210716
2021-01-31 18:45:13,3620,0.03219582,-0.09352434,-0.5588665
2021-01-31 18:45:13,3640,0.03055448,-0.06404728,-0.13938332
2021-01-31 18:45:13,3660,0.004760869,0.08528894,0.12691212
2021-01-31 18:45:14,3680,-0.09024341,0.15411681,0.21846962
2021-01-31 18:45:14,3701,-0.17191315,0.08411944,0.0048999786
2021-01-31 18:45:14,3720,-0.06401,0.008052528,-0.27722073
2021-01-31 18:45:14,3740,0.3596581,-0.033435225,-0.37012672
2021-01-31 18:45:14,3760,0.5365221,0.086045325,-0.05721569
2021-01-31 18:45:14,3780,0.15740918,0.16280806,0.22320175
2021-01-31 18:45:14,3801,-0.34885848,0.27916723,0.34431267
2021-01-31 18:45:14,3820,-0.22950883,0.023263395,0.21431828
2021-01-31 18:45:14,3840,0.09515767,-0.12772787,-0.16486359
2021-01-31 18:45:14,3860,0.37747973,-0.17464805,0.022331238
2021-01-31 18:45:14,3880,0.14188871,-0.0995695,0.35612774
2021-01-31 18:45:14,3900,-0.049880005,-0.048446655,0.5175438
2021-01-31 18:45:14,3921,-0.15824382,-0.14696807,0.24998093
2021-01-31 18:45:14,3940,-0.2298729,-0.16205281,2.1457672E-4
2021-01-31 18:45:14,3960,-0.16493024,-0.09846616,-0.11892319
2021-01-31 18:45:14,3980,0.07427387,-0.12543774,-0.30314922
2021-01-31 18:45:14,4000,-0.07487908,-0.19900441,-0.18397617
2021-01-31 18:45:14,4021,-0.3344095,-0.12911856,0.18991184
2021-01-31 18:45:14,4040,-0.35121286,-0.10688132,0.40864563
2021-01-31 18:45:14,4060,-0.14322555,-0.06905657,0.08884621
2021-01-31 18:45:14,4080,-0.015397545,-0.13739139,-0.56687355
2021-01-31 18:45:14,4101,-0.08460694,-0.20856714,-0.38618946
2021-01-31 18:45:14,4120,0.03847321,-0.20422333,-0.1953106
2021-01-31 18:45:14,4140,0.13850513,-0.16523814,-0.45987892
2021-01-31 18:45:14,4160,0.03884861,0.00147295,-0.51978207
2021-01-31 18:45:14,4180,-0.2567542,0.13135469,-0.2616501
2021-01-31 18:45:14,4201,-0.28074276,0.26591992,0.18744278
2021-01-31 18:45:14,4220,-0.20811746,0.28723872,0.5386381
2021-01-31 18:45:14,4240,-0.06331114,0.20093393,0.27249432
2021-01-31 18:45:14,4260,0.0488807,-0.0067464113,-0.21334362
2021-01-31 18:45:14,4281,-0.26082677,-0.069536865,0.06821537
2021-01-31 18:45:14,4300,-0.29248536,0.04001218,0.39761066
2021-01-31 18:45:14,4320,-0.49626648,0.5091221,0.7634258
2021-01-31 18:45:14,4340,-0.62575954,0.36722064,0.77375126
2021-01-31 18:45:14,4360,-0.72328913,-0.03598088,-0.080163
2021-01-31 18:45:14,4381,-0.777068,-0.2057916,-0.4227438
2021-01-31 18:45:14,4400,-0.64956796,-0.24805996,-0.19384193
2021-01-31 18:45:14,4420,-0.31317627,-0.026400864,0.58158684
2021-01-31 18:45:14,4440,0.5195123,0.09533733,1.3213778
2021-01-31 18:45:14,4461,0.64765275,-0.037828326,1.0648327
2021-01-31 18:45:14,4480,0.40631634,-0.24483538,0.2662468
2021-01-31 18:45:14,4500,0.41155803,-0.2673667,-0.3622961
2021-01-31 18:45:14,4520,0.42210296,-0.04375565,-0.33297634
2021-01-31 18:45:14,4540,0.34892657,0.13552547,-0.4493208
2021-01-31 18:45:14,4561,0.28747854,0.051893532,-0.86276436
2021-01-31 18:45:14,4580,-0.13810681,-0.20293581,-0.80408573
2021-01-31 18:45:14,4600,-0.5048728,-0.58523905,-0.78383064
2021-01-31 18:45:14,4620,-0.592833,-0.4723693,0.03254795
2021-01-31 18:45:14,4640,0.03472179,-0.1879245,1.0014448
2021-01-31 18:45:14,4661,0.25631556,0.07896018,0.5153971
2021-01-31 18:45:15,4680,0.23201536,0.01395148,-0.23525715
2021-01-31 18:45:15,4700,0.09990365,-0.019347668,-0.5239649
2021-01-31 18:45:15,4720,0.28965792,0.12111497,-0.28381443
2021-01-31 18:45:15,4740,0.22808117,0.34139574,-0.06507492
2021-01-31 18:45:15,4761,0.012536496,0.27735692,-0.09583855
2021-01-31 18:45:15,4780,0.2561643,0.2552758,-0.38581562
2021-01-31 18:45:15,4800,0.5863297,0.15489584,-0.44436455
2021-01-31 18:45:15,4820,0.31390637,0.13096261,-0.11964798
2021-01-31 18:45:15,4841,-0.25104377,0.1681301,0.3874092
2021-01-31 18:45:15,4860,-0.3544839,0.1962415,0.3688755
2021-01-31 18:45:15,4880,-0.060321674,-0.021469593,-0.075984
2021-01-31 18:45:15,4900,0.20343302,-0.15201354,0.002366066
2021-01-31 18:45:15,4921,-0.035992302,-0.15260166,0.52061844
2021-01-31 18:45:15,4940,-0.24774599,0.030223787,0.51496506
2021-01-31 18:45:15,4960,0.14111005,-0.011572301,0.11933422
2021-01-31 18:45:15,4980,0.23745112,0.011859834,-0.1949768
2021-01-31 18:45:15,5000,0.13605101,0.0029395819,-0.12563229
2021-01-31 18:45:15,5020,0.06564202,0.085267425,0.2611208
2021-01-31 18:45:15,5040,-0.0053209187,0.1461674,0.19313145
2021-01-31 18:45:15,5060,-0.0652517,0.15289307,0.016255379
2021-01-31 18:45:15,5080,-0.11894072,0.0772534,0.05909443
2021-01-31 18:45:15,5100,-0.06451285,0.024000704,0.16367054
2021-01-31 18:45:15,5121,0.29361296,-0.010565698,-0.18016148
2021-01-31 18:45:15,5140,0.22910279,-0.035959363,-0.27150917
2021-01-31 18:45:15,5160,0.04793047,-0.06646335,-0.12167168
2021-01-31 18:45:15,5180,-0.2441048,-0.023769438,-0.08126831
2021-01-31 18:45:15,5201,-0.26118466,-0.06482893,-0.13875484
2021-01-31 18:45:15,5220,-0.22479717,-0.1906038,-0.06825733
2021-01-31 18:45:15,5240,-0.16475834,-0.16404724,0.07344818
2021-01-31 18:45:15,5260,-0.41994923,-0.14485127,0.21374226
2021-01-31 18:45:15,5280,-0.201274,-0.11417884,-0.28771114
2021-01-31 18:45:15,5300,-0.15330794,-0.07626063,-0.2706747
2021-01-31 18:45:15,5321,-0.3656159,-0.08486205,9.4127655E-4
2021-01-31 18:45:15,5340,-0.38694572,-0.0064367056,-0.120202065
2021-01-31 18:45:15,5361,-0.21045908,-0.04044336,-0.46810055
2021-01-31 18:45:15,5380,-0.1676483,-0.031855762,-0.434103
2021-01-31 18:45:15,5400,-0.22972478,0.04386878,0.13808918
2021-01-31 18:45:15,5420,-0.2753936,0.07677859,0.10940075
2021-01-31 18:45:15,5440,-0.48865253,0.043974996,-0.21446037
2021-01-31 18:45:15,5460,-0.28998327,0.07891339,-0.1237936
2021-01-31 18:45:15,5481,-0.19486758,0.1812017,0.24546623
2021-01-31 18:45:15,5500,-0.4865168,0.18045926,0.20053482
2021-01-31 18:45:15,5520,-0.9146416,0.34382015,-0.063290596
2021-01-31 18:45:15,5540,-0.71287096,0.2901535,-0.09289074
2021-01-31 18:45:15,5560,0.02700463,-0.076951325,0.16793919
2021-01-31 18:45:15,5581,-0.09752804,-0.18962622,4.386902E-5
2021-01-31 18:45:15,5600,-0.27269375,-0.22177452,0.007163048
2021-01-31 18:45:15,5620,-0.06418371,-0.21983588,0.2550087
2021-01-31 18:45:15,5640,0.102247745,-0.10342336,0.2558403
2021-01-31 18:45:15,5660,0.17009506,0.02275902,0.013392448
2021-01-31 18:45:16,5681,0.39127582,0.058481753,0.34632015
2021-01-31 18:45:16,5700,0.4363789,0.0332371,0.5664778
2021-01-31 18:45:16,5720,0.30313826,-0.015776694,0.02031517
2021-01-31 18:45:16,5740,0.1557073,0.08787632,-0.4812832
2021-01-31 18:45:16,5760,0.21683042,0.026396513,-0.34503365
2021-01-31 18:45:16,5781,0.46221405,-0.07399684,0.23143482
2021-01-31 18:45:16,5800,0.7730795,-0.088786006,0.29938507
2021-01-31 18:45:16,5820,0.8103379,-0.1933927,-0.21146584
2021-01-31 18:45:16,5840,0.49530947,-0.3811855,0.006047249
2021-01-31 18:45:16,5860,0.63828397,-0.22918081,0.4161892
2021-01-31 18:45:16,5881,0.41231984,0.012833178,0.5657978
2021-01-31 18:45:16,5900,0.168953,0.03912723,0.16395283
2021-01-31 18:45:16,5920,0.059100166,0.06521493,-0.3808241
2021-01-31 18:45:16,5940,-0.1646346,0.18322963,-0.17520428
2021-01-31 18:45:16,5961,0.18280955,0.30257356,-0.14126015
2021-01-31 18:45:16,5980,0.20306131,-0.010064721,-0.34677982
2021-01-31 18:45:16,6000,0.003179118,-0.1220845,-0.61794376
2021-01-31 18:45:16,6020,-0.1160468,-0.08882326,-0.12306118
2021-01-31 18:45:16,6040,0.031190157,0.03423989,0.22413445
2021-01-31 18:45:16,6061,-0.23987563,0.19742638,-0.0681448
2021-01-31 18:45:16,6080,-0.52516735,0.1952982,-0.184865
2021-01-31 18:45:16,6100,-0.47835317,-0.06366837,-5.1784515E-4
2021-01-31 18:45:16,6120,-0.24384971,-0.09850448,0.022096634
2021-01-31 18:45:16,6141,-0.32889178,-0.075785756,-0.05395603
2021-01-31 18:45:16,6160,-0.29577267,0.029054105,0.06510544
2021-01-31 18:45:16,6180,-0.34070915,0.11172247,0.28447342
2021-01-31 18:45:16,6200,-0.11078751,0.060512185,0.098275185
2021-01-31 18:45:16,6220,-0.07303797,0.10025984,-0.24808025
2021-01-31 18:45:16,6240,-0.02610822,0.1005432,-0.109220505
2021-01-31 18:45:16,6261,0.08169621,0.14733559,0.06748676
2021-01-31 18:45:16,6280,0.10423012,0.22457772,-0.019499779
2021-01-31 18:45:16,6300,0.024596408,0.18735403,0.19276619
2021-01-31 18:45:16,6321,-0.14054514,0.20588613,0.3474779
2021-01-31 18:45:16,6340,-0.0027934164,-0.016535103,-0.11211109
2021-01-31 18:45:16,6360,0.053302206,0.0459612,-0.16345215
2021-01-31 18:45:16,6380,-0.1290334,0.27653188,0.38386345
2021-01-31 18:45:16,6400,-0.12858574,0.21107066,0.3679142
2021-01-31 18:45:16,6421,0.21302725,0.020046175,-0.27898598
2021-01-31 18:45:16,6440,0.40074426,0.028373003,-0.5051918
2021-01-31 18:45:16,6460,0.18688922,0.046972156,-0.20317459
2021-01-31 18:45:16,6480,-0.14177139,0.021204054,0.17053223
2021-01-31 18:45:16,6500,-0.1356701,-0.11465019,-0.004020691
2021-01-31 18:45:16,6521,0.045196533,-0.28067935,-0.1586237
2021-01-31 18:45:16,6540,0.117103875,-0.30337662,-0.20279503
2021-01-31 18:45:16,6560,0.13732457,-0.20719075,-0.33274078
2021-01-31 18:45:16,6581,0.2567709,-0.0357126,-0.29559422
2021-01-31 18:45:16,6600,0.30261695,-0.046771884,-0.19357586
2021-01-31 18:45:16,6620,0.4366548,-0.065740585,0.16607094
2021-01-31 18:45:16,6640,0.29660583,-0.040468097,0.18375397
2021-01-31 18:45:16,6660,0.12808014,-0.051022053,0.0023488998
2021-01-31 18:45:17,6681,0.13070847,-0.06100589,-0.17686176
2021-01-31 18:45:17,6700,0.22770748,0.12702721,-0.08229637
2021-01-31 18:45:17,6720,-0.043142654,0.15933889,0.10550308
2021-01-31 18:45:17,6740,-0.063044466,0.03537166,0.11174774
2021-01-31 18:45:17,6761,0.03054104,0.01009649,0.04894066
2021-01-31 18:45:17,6780,0.20304164,-0.012245834,-0.03765583
2021-01-31 18:45:17,6800,0.018939815,-0.022401392,-0.058120728
2021-01-31 18:45:17,6820,-0.06985746,-0.04927665,0.102915764
2021-01-31 18:45:17,6840,-0.09861198,-0.09354621,0.08494663
2021-01-31 18:45:17,6861,-0.06997322,-0.054302037,-0.1896019
2021-01-31 18:45:17,6880,-0.28681418,-0.05970204,-0.19164181
2021-01-31 18:45:17,6900,-0.52000654,-0.045647323,0.052399635
2021-01-31 18:45:17,6920,-0.5495399,-0.07252538,0.0068559647
2021-01-31 18:45:17,6940,-0.3017618,0.09434497,-0.4052744
2021-01-31 18:45:17,6961,-0.18448399,0.10495973,-0.4683342
2021-01-31 18:45:17,6980,-0.29258117,0.0026188493,-0.035452843
2021-01-31 18:45:17,7000,-0.6292996,0.07057768,0.42805958
2021-01-31 18:45:17,7020,-0.28650793,0.13062489,0.06975651
2021-01-31 18:45:17,7041,0.30646482,0.053240836,-0.2495966
2021-01-31 18:45:17,7060,0.37510103,0.010114431,-0.2644949
2021-01-31 18:45:17,7080,0.09116678,-0.047638953,0.3472767
2021-01-31 18:45:17,7100,0.19910759,0.04551351,0.6152849
2021-01-31 18:45:17,7120,0.3193089,0.0144405365,0.30739307
2021-01-31 18:45:17,7141,0.035267696,-0.041030288,-0.39098358
2021-01-31 18:45:17,7160,-0.28783533,-0.11278701,-0.5268698
2021-01-31 18:45:17,7180,-0.08766562,-0.28407985,0.0738287
2021-01-31 18:45:17,7201,0.44170922,-0.32891157,0.6453657
2021-01-31 18:45:17,7220,0.56306267,-0.2741014,0.99060917
2021-01-31 18:45:17,7240,0.5493362,-0.16624343,0.6375046
2021-01-31 18:45:17,7261,0.4916253,-0.12463099,-0.34181595
2021-01-31 18:45:17,7280,0.40281153,-0.1303466,-0.9570875
2021-01-31 18:45:17,7300,0.04524459,0.111937344,-0.75699615
2021-01-31 18:45:17,7320,-0.3244694,0.31022084,0.233881
2021-01-31 18:45:17,7340,0.41649577,0.87229925,0.5321121
2021-01-31 18:45:17,7361,-0.15400085,0.08390933,0.24744034
2021-01-31 18:45:17,7380,-0.4616774,0.0034786463,0.11341858
2021-01-31 18:45:17,7400,-0.22206134,0.21052945,0.08890724
2021-01-31 18:45:17,7420,-0.33071324,0.006961167,0.33085918
2021-01-31 18:45:17,7440,-0.2690838,-0.27217454,0.44698715
2021-01-31 18:45:17,7461,-0.11556873,-0.20352054,0.07346916
2021-01-31 18:45:17,7480,-0.21138695,-0.11050767,-0.0021848679
2021-01-31 18:45:17,7500,-0.09034304,0.048047423,-0.15286255
2021-01-31 18:45:17,7520,-0.017598704,0.088504195,-0.19911861
2021-01-31 18:45:17,7541,-0.02929607,0.16080743,-0.10185242
2021-01-31 18:45:17,7560,-0.119953796,0.21641552,-0.10548687
2021-01-31 18:45:17,7580,-0.24905,0.21392846,-0.2505312
2021-01-31 18:45:17,7600,-0.049898714,0.19144964,-0.47129917
2021-01-31 18:45:17,7621,0.13569984,0.08860624,-0.26222038
2021-01-31 18:45:17,7641,-0.10567857,0.04335934,0.05736351
2021-01-31 18:45:17,7660,-0.11183481,-0.106399536,0.10157871
2021-01-31 18:45:18,7680,-0.092054084,-0.18095952,0.14334011
2021-01-31 18:45:18,7700,-0.123446,-0.17416048,0.18986797
2021-01-31 18:45:18,7721,0.22772928,-0.2287013,0.13058758
2021-01-31 18:45:18,7740,0.14835025,-0.19491124,0.06421471
2021-01-31 18:45:18,7760,-0.15270102,-0.15773189,0.32543564
2021-01-31 18:45:18,7780,-0.07612933,-0.1833877,0.21998692
2021-01-31 18:45:18,7800,0.058580086,-0.37028527,-0.18103409
2021-01-31 18:45:18,7820,-0.03873664,-0.36165246,-0.169487
2021-01-31 18:45:18,7841,0.07401708,-0.20341435,-0.27865028
2021-01-31 18:45:18,7860,0.15111607,-0.094920695,-0.40210342
2021-01-31 18:45:18,7880,0.16601202,-0.044265747,-0.37638092
2021-01-31 18:45:18,7900,0.32654935,-0.03722626,-0.28515816
2021-01-31 18:45:18,7920,0.3717203,-0.10485113,-0.40302944
2021-01-31 18:45:18,7940,0.41384962,0.08540678,-0.41713905
2021-01-31 18:45:18,7961,0.51321715,0.09387815,0.14535332
2021-01-31 18:45:18,7980,0.06986039,0.071864724,0.5547323
2021-01-31 18:45:18,8000,-0.16937906,0.16912502,0.23855019
2021-01-31 18:45:18,8020,-0.21140009,0.073382616,-0.11231899
2021-01-31 18:45:18,8040,-0.11070369,0.006490767,0.26680565
2021-01-31 18:45:18,8060,-0.014641326,0.009651899,0.41014194
2021-01-31 18:45:18,8081,-0.2749274,0.09809637,0.084049225
2021-01-31 18:45:18,8100,-0.2962315,0.10691267,-0.37187767
2021-01-31 18:45:18,8120,-0.18578562,0.021298647,-0.26546
2021-01-31 18:45:18,8140,-0.35199812,-0.23490024,0.01081562
2021-01-31 18:45:18,8160,-0.45254865,-0.31545544,0.043328285
2021-01-31 18:45:18,8180,-0.33304727,-0.19256908,-0.15652752
2021-01-31 18:45:18,8201,-0.51744485,-0.16009039,0.24384499
2021-01-31 18:45:18,8220,-0.41403577,-0.24445108,0.55243206
2021-01-31 18:45:18,8240,-0.23658493,-0.34441262,0.53643227
2021-01-31 18:45:18,8260,0.013080806,-0.27758116,0.33838272
2021-01-31 18:45:18,8280,0.13152029,-0.10315883,0.06798744
2021-01-31 18:45:18,8301,0.03380268,0.09847504,-0.24208641
2021-01-31 18:45:18,8320,-0.088370785,0.080123544,-0.41431618
2021-01-31 18:45:18,8340,-0.17965478,0.17382848,-0.5151167
2021-01-31 18:45:18,8360,-0.32355452,0.35493064,-0.25114727
2021-01-31 18:45:18,8380,-0.44981045,0.53160965,0.13171768
2021-01-31 18:45:18,8400,-0.48081315,0.5604739,0.36910248
2021-01-31 18:45:18,8420,-0.14975,0.31933606,0.13625717
2021-01-31 18:45:18,8440,-0.048003227,0.17843384,-0.03163147
2021-01-31 18:45:18,8461,-0.11430529,0.24098665,0.006893158
2021-01-31 18:45:18,8480,-0.1441021,0.29483348,-0.2936468
2021-01-31 18:45:18,8500,-0.2019079,0.27257174,-0.46238804
2021-01-31 18:45:18,8520,-0.14822108,0.21389198,-0.5046406
2021-01-31 18:45:18,8540,0.048807174,0.2631091,-0.1976099
2021-01-31 18:45:18,8560,-0.10734582,0.11677301,0.2394867
2021-01-31 18:45:18,8581,-0.4548232,0.09084296,0.47393417
2021-01-31 18:45:18,8600,-0.41629383,0.10703015,0.24943256
2021-01-31 18:45:18,8620,-0.02968213,0.06457293,0.3143568
2021-01-31 18:45:18,8640,0.0661892,0.055769026,0.54823875
2021-01-31 18:45:18,8661,-0.32357696,-0.12980133,0.6106968
2021-01-31 18:45:19,8680,-0.30798703,-0.106369555,0.34305763
2021-01-31 18:45:19,8700,-0.052158922,-0.19992554,-0.42320728
2021-01-31 18:45:19,8721,0.12148753,-0.21690065,-0.48795223
2021-01-31 18:45:19,8740,0.074609995,-0.1850326,0.19194603
2021-01-31 18:45:19,8760,-0.40348092,0.11294955,0.7150545
2021-01-31 18:45:19,8780,0.050762504,-0.015274823,0.034819603
2021-01-31 18:45:19,8801,0.6239307,-0.19925112,-0.5997257
2021-01-31 18:45:19,8820,0.5303651,-0.2343925,-0.50245667
2021-01-31 18:45:19,8840,-0.13158888,-0.09900606,-0.105656624
2021-01-31 18:45:19,8860,-0.08921152,0.048351884,-0.07580185
2021-01-31 18:45:19,8880,-0.21990335,0.20153195,-0.24976826
2021-01-31 18:45:19,8901,-0.27569377,0.18085623,-0.32960606
2021-01-31 18:45:19,8920,-0.2208932,0.1964435,-0.20969582
2021-01-31 18:45:19,8940,-0.15370175,0.26180863,-0.026914597
2021-01-31 18:45:19,8960,-0.10158381,0.16573793,-0.13977432
2021-01-31 18:45:19,8981,-0.26522067,0.15964544,-0.12419224
2021-01-31 18:45:19,9000,0.010062054,0.22889167,-0.21353722
2021-01-31 18:45:19,9020,-0.08717485,0.19891292,-0.37505054
2021-01-31 18:45:19,9040,-0.21343026,0.19133878,-0.2899437
2021-01-31 18:45:19,9061,-0.22112669,0.036525548,0.09923935
2021-01-31 18:45:19,9080,0.0018053949,-0.08176184,0.30582333
2021-01-31 18:45:19,9100,0.012220055,-0.10790032,0.27291393
2021-01-31 18:45:19,9120,-0.19257224,-0.053601503,0.10272503
2021-01-31 18:45:19,9141,0.075445026,-0.039523363,0.043539047
2021-01-31 18:45:19,9160,0.0080109835,-0.06517398,0.21496296
2021-01-31 18:45:19,9180,-0.22297889,0.059422433,0.06156826
2021-01-31 18:45:19,9200,0.13608474,0.07124978,-0.28250217
2021-01-31 18:45:19,9220,0.28040266,-0.03185314,-0.44689083
2021-01-31 18:45:19,9241,0.40700668,-0.019954741,-0.14483547
2021-01-31 18:45:19,9260,0.4569017,-0.01838696,0.18523884
2021-01-31 18:45:19,9280,0.51533693,-0.040474236,0.16709423
2021-01-31 18:45:19,9300,0.35454613,-0.20921546,0.30062294
2021-01-31 18:45:19,9320,0.05221799,0.08917248,0.42948914
2021-01-31 18:45:19,9340,0.18707344,-0.18435645,0.0694828
2021-01-31 18:45:19,9361,0.4275414,-0.15476996,-0.19214344
2021-01-31 18:45:19,9380,0.58816916,-0.11782223,0.07682419
2021-01-31 18:45:19,9400,0.47170746,5.119443E-4,0.01149559
2021-01-31 18:45:19,9420,0.22191688,-0.05101359,-0.107777596
2021-01-31 18:45:19,9440,0.11421585,0.13504201,0.13348389
2021-01-31 18:45:19,9461,0.17785877,0.11787242,0.24511433
